
jiangpai_G.png
size: 296,171
format: RGBA8888
filter: Linear,Linear
repeat: none
g
  rotate: false
  xy: 188, 65
  size: 108, 106
  orig: 108, 106
  offset: 0, 0
  index: -1
g2
  rotate: false
  xy: 0, 0
  size: 188, 171
  orig: 188, 171
  offset: 0, 0
  index: -1
