{"skeleton":{"images":""},
"bones":[{"name":"root"}],
"slots":[
	{"name":"bg","bone":"root","attachment":"bg"},
	{"name":"g","bone":"root","attachment":"g"},
	{"name":"t","bone":"root","attachment":"t"},
	{"name":"y","bone":"root","attachment":"y"}
],
"skins":{
	"default":{
		"y":{"y":{"x":104,"y":113,"width":108,"height":106}},
		"t":{"t":{"x":104,"y":113,"width":108,"height":106}},
		"g":{"g":{"x":104,"y":113,"width":108,"height":106}},
		"bg":{"bg":{"x":102.5,"y":112,"width":205,"height":224}}
	}
},
"animations":{"animation":{}}
}